<?xml version="1.0" encoding="UTF-8"?>
<svg width="22px" height="18px" viewBox="0 0 22 18" version="1.1" xmlns="http://www.w3.org/2000/svg" xmlns:xlink="http://www.w3.org/1999/xlink">
    <!-- Generator: Sketch 43.2 (39069) - http://www.bohemiancoding.com/sketch -->
    <title>arrows-24px-outline-1_tail-right</title>
    <desc>Created with Sketch.</desc>
    <defs></defs>
    <g id="Pages" stroke="none" stroke-width="1" fill="none" fill-rule="evenodd">
        <g id="Buy-Now" transform="translate(-504.000000, -52.000000)" stroke-width="2" stroke="#FFFFFF">
            <g id="arrows-24px-outline-1_tail-right" transform="translate(504.000000, 54.000000)">
                <g id="Group">
                    <path d="M0,7 L20,7" id="Shape"></path>
                    <polyline id="Shape" stroke-linecap="square" points="13 0 20 7 13 14"></polyline>
                </g>
            </g>
        </g>
    </g>
</svg>