<svg xmlns="http://www.w3.org/2000/svg" width="24" height="10" viewBox="0 0 24 10">
    <g fill="none" fill-rule="evenodd" stroke="#4A90E2" stroke-width="2">
        <path d="M14 5c0 2.2-1.8 4-4 4H5C2.8 9 1 7.2 1 5s1.8-4 4-4h2"/>
        <path d="M10 5c0-2.2 1.8-4 4-4h5c2.2 0 4 1.8 4 4s-1.8 4-4 4h-2"/>
    </g>
</svg>
