<svg xmlns="http://www.w3.org/2000/svg" width="24" height="22" viewBox="0 0 24 22">
    <g fill="none" fill-rule="evenodd" stroke="#B9BFBC" stroke-linecap="round" stroke-linejoin="round" stroke-width="2" transform="translate(1 1)">
        <path d="M5 10H2M5 15H4M16.829 16H22v-6l-4-2-1-4H9v12h2.171M0 5h5M0 0h9v4"/>
        <circle cx="14" cy="17" r="3"/>
        <path d="M13 7v2h2"/>
    </g>
</svg>
