<?xml version="1.0" encoding="UTF-8"?>
<svg width="415px" height="55px" viewBox="0 0 415 55" version="1.1" xmlns="http://www.w3.org/2000/svg" xmlns:xlink="http://www.w3.org/1999/xlink">
    <!-- Generator: Sketch 46.2 (44496) - http://www.bohemiancoding.com/sketch -->
    <title>growing-trends</title>
    <desc>Created with Sketch.</desc>
    <defs></defs>
    <g id="Desktop" stroke="none" stroke-width="1" fill="none" fill-rule="evenodd">
        <g id="PIAB_Home_V2" transform="translate(-512.000000, -1059.000000)">
            <g id="growing-trends" transform="translate(512.000000, 1059.000000)">
                <path d="M301.858141,52.983255 C301.842428,52.1049962 302.592504,51.943734 303.746149,52.0206436 C305.850828,52.1604042 307.967911,52.2629504 310.084994,52.2770092 C310.573743,52.2786632 311.427192,51.9090006 311.522296,51.6278254 C312.028411,50.1268464 312.360859,48.6002309 312.723906,47.0794042 C312.860358,46.5079571 312.512197,46.2400137 311.590108,46.225955 C309.332437,46.1928756 307.079728,46.0928103 304.823712,46.0316134 C300.744191,45.9207973 296.660536,45.8455416 292.584324,45.708262 C279.829723,45.2790564 116.380139,45.7529192 103.604865,46.7767275 C101.801209,46.8246926 99.99838,46.8652149 98.1947242,46.9214499 C96.2835603,46.9818199 94.3666075,47.0058025 92.4637135,47.1406011 C90.3350523,47.2911125 90.1349218,47.497859 90.299492,48.8905028 C90.3871524,49.6364439 90.5095463,50.381558 90.6195354,51.1274991 C90.7237356,51.826302 90.4648891,52.8244737 91.0388172,53.1436902 C91.6698072,53.4959861 93.069067,53.2321776 94.1342245,53.2222538 C99.7296096,53.1726347 105.330784,53.0262582 110.919553,53.097379 C115.062751,53.1494791 269.885221,52.7409482 274.01436,52.97912 C277.424849,53.1751156 280.821279,53.4645606 284.232595,53.6580753 C287.504977,53.8433201 290.78563,53.9698489 294.065455,54.1021666 C295.945193,54.1765953 297.829067,54.2138096 299.711286,54.2617748 C301.013789,54.2940273 301.876335,53.9979664 301.858141,52.983255" id="Fill-26" fill="#CFD3D1"></path>
                <path d="M21.1516767,11.6029417 C24.8580724,9.36928117 29.1347955,7.23091957 34.9788197,5.23477332 C35.4545814,5.09255798 35.5014978,4.33236567 34.4084922,2.81198105 C33.2209208,1.10173161 32.1279153,0.246240364 30.4176659,0.246240364 C27.519112,0.246240364 22.1970327,2.66903264 17.349982,5.94804923 C12.3130665,9.32236476 8.84491821,12.885812 8.84491821,16.4016098 C8.84491821,19.0633825 10.8879809,20.3462529 13.0263425,21.6760396 C15.5451667,23.2440737 16.3522755,24.004266 16.3522755,25.2878694 C16.3522755,28.1864233 10.3653028,31.0373278 2.85721253,31.0373278 C2.23996862,31.0373278 1.47977631,30.9896783 1.00474775,30.9896783 C0.434420252,30.9896783 0.196905972,31.8444365 1.81258953,34.0311806 C3.28532469,36.0258607 5.09087306,37.1195993 7.37144999,37.1195993 C13.2638567,37.1195993 21.1516767,32.1772497 21.1516767,27.1403342 C21.1516767,24.2901628 18.3953381,22.7213957 16.3053591,21.3916089 C15.1170546,20.6306836 14.0716985,19.6806264 14.0716985,18.5876209 C14.0716985,16.5445583 16.3522755,14.5014956 21.1516767,11.6029417" id="Fill-1" fill="#5A7267"></path>
                <path d="M51.9441569,25.0021925 C49.66358,27.9960454 47.0978393,30.0867575 44.6743139,31.1321136 C44.579015,27.5210168 49.3307668,22.1989376 54.652846,20.4886881 C53.7973548,21.7231759 52.7996482,23.387242 51.9441569,25.0021925 M37.4983038,20.4886881 C37.5936027,21.8668574 36.9287094,23.1013452 34.8379972,24.6217298 C33.6973422,25.5248706 31.6066301,26.6178761 29.515918,27.4733673 C31.1308685,24.1943508 34.5521004,21.2004979 37.4983038,20.4886881 M69.3362134,23.0544288 C72.4722816,21.9614233 73.9450167,20.9160672 73.9450167,19.2527342 C73.9450167,18.6347572 73.6605861,17.5424848 72.6144969,16.211965 C71.9019541,15.3088242 71.3792761,15.1666089 71.0941123,15.4041232 C67.9580441,17.3995364 62.7789133,17.9698639 62.7789133,22.3895355 C62.7789133,23.5345889 63.2253522,24.3321677 63.7575601,24.9904634 C60.6852689,29.0509313 58.501457,30.476017 56.4107449,30.8469498 C57.1709372,28.0913443 58.6444054,25.2397068 60.4968702,23.0544288 C60.8296834,22.6739661 60.8296834,22.1989376 60.6874681,21.9614233 C60.0694911,21.1535815 58.4538076,19.7754122 57.5037504,19.2527342 C57.0287219,18.9683035 56.5060438,18.9683035 56.1255812,19.0628694 C55.3653888,18.0175133 54.130168,17.0674562 52.989513,16.7822925 C51.9441569,16.5447782 51.0886657,16.639344 50.0433096,16.9721573 C46.7650261,18.0175133 43.5336589,20.2980903 41.2054325,23.1013452 C39.4372707,25.2001211 38.6345604,27.0694465 38.556122,28.6191538 C35.9251382,30.6878739 33.0771661,31.79774 30.5612741,31.79774 C29.8479981,31.79774 29.1354553,31.7024411 28.5651278,31.5125763 C28.5174783,30.9422488 28.5651278,30.3719213 28.6604267,29.7539443 C31.8441444,28.8038872 34.5997499,27.6155827 36.3583819,26.5225772 C39.3991511,24.6217298 40.3968577,23.1497278 40.3968577,22.0090728 C40.3968577,20.9160672 39.7796138,20.060576 38.7335247,19.1574353 C37.4037379,17.1620221 36.4060313,16.734643 35.1224279,16.734643 C31.8917939,16.734643 27.234608,19.5855474 24.5743014,23.1013452 C22.5305057,25.8576838 21.8656123,28.7562377 22.5781552,30.3719213 C23.290698,32.0352543 24.7165168,33.5556389 26.1423355,34.2689148 C26.9494442,34.6962939 27.9002344,34.8854257 29.1354553,34.8854257 C32.1923521,34.8854257 35.8357038,33.130459 38.8713416,30.5024075 C38.9424493,30.6702802 39.0216207,30.8352207 39.1147204,30.9898982 C39.6850479,31.9399553 40.2553754,32.5579323 41.2054325,33.0806103 C43.0586304,34.6962939 44.1039864,34.7432103 45.2915579,34.2205323 C46.6220777,33.6509378 48.3330602,32.1774696 50.2808239,29.9438091 C49.8534448,32.6532313 50.6612866,34.4111302 52.7996482,34.4111302 C57.5360055,34.4111302 62.6132397,28.8310107 64.5331468,25.8562177 C65.0756177,26.4338758 65.5345188,26.9668168 65.5345188,27.6632322 C65.5345188,30.039108 61.400744,32.7954466 58.6451385,33.6978542 C58.1693769,33.8408027 58.3592417,34.5533455 59.2147329,35.3135378 C60.260089,36.2166785 61.4483935,36.786273 63.064077,36.786273 C64.6321111,36.786273 65.867332,36.2166785 66.9126881,35.4564862 C68.670587,34.1252333 69.4784287,32.5579323 69.4784287,30.9898982 C69.4784287,27.8054475 66.6275243,26.6178761 66.6275243,25.049842 C66.6275243,24.0997849 67.5783145,23.6724058 69.3362134,23.0544288" id="Fill-3" fill="#5A7267"></path>
                <path d="M87.2499216,23.2439271 C85.9670513,22.8641975 85.4920227,22.0087062 85.4920227,21.0109996 C85.4920227,20.8204018 85.5396722,20.6781864 85.5396722,20.5836205 C86.0616172,20.2508073 86.5373788,20.0602094 86.9647579,19.9179941 C87.392137,20.0602094 87.6303843,20.5836205 87.6303843,21.2485139 C87.6303843,21.8664909 87.4874359,22.5313843 87.2499216,23.2439271 M78.1268808,31.5122097 C77.8886335,30.1340404 78.5066104,28.5183569 79.5526996,26.9026733 C80.740271,25.001826 82.1184403,23.3868755 83.448227,22.1516546 C83.448227,23.434525 84.2568019,24.7643117 86.252215,25.2400734 C84.4466667,28.0433283 81.3098654,30.7043679 78.1268808,31.5122097 M120.703515,16.3068974 C119.895673,16.3068974 118.422205,16.7342765 117.234633,17.4475524 C115.048622,18.6820402 113.575887,20.4883216 113.575887,22.4837348 C113.575887,23.4587162 114.03992,24.2621596 114.607315,24.9834993 C111.393541,29.2345651 108.119656,31.6558912 106.305311,31.7020745 C107.825696,28.5183569 110.106273,25.6681855 111.293844,23.1970107 C112.292284,21.0586491 112.101686,19.8234282 111.151629,19.1578018 C110.058623,18.34996 109.250781,17.9702304 108.680454,17.9702304 C108.157776,17.9702304 107.492883,18.2077447 106.494443,18.8257216 C105.40217,19.490615 103.881053,20.7258359 102.028588,22.4360853 C102.645832,21.1062986 102.978645,20.2031579 102.978645,19.6804798 C102.978645,18.8257216 102.645832,18.5398248 101.362962,17.6374172 C100.55512,17.0670897 99.6050626,16.6389775 99.0823846,16.6389775 C98.2840727,16.6389775 97.4087886,17.5919669 94.1393019,21.8906822 C92.8007183,22.7322451 91.305258,23.295975 89.4828491,23.434525 C89.5304986,23.0540623 89.578148,22.6743327 89.578148,22.29387 C89.578148,20.5836205 88.9601711,19.1578018 87.6773007,18.6351238 C87.0600568,17.6850666 85.206859,16.7342765 83.6388249,16.7342765 C80.4074578,16.7342765 76.3682489,19.8703446 73.993106,23.0540623 C71.0461696,26.9510559 71.4742818,30.4675867 73.5649939,32.7481637 C74.8478642,34.0779504 76.178384,34.8857922 78.2214467,34.8857922 C81.8801929,34.8857922 85.3490743,32.272402 87.6303843,28.3292251 C88.1523293,27.4260844 88.6280909,26.4283778 88.9601711,25.4299382 C90.0458459,25.3353723 91.0750744,25.0612046 92.0324623,24.6763435 C92.0221993,24.6910048 92.0134025,24.7027339 92.0024064,24.7173953 C89.5788811,27.9487624 88.4858756,30.1816899 88.4858756,31.6551581 C88.4858756,32.6528647 89.151502,33.3654076 90.1015591,33.6029218 C91.2422141,33.8880856 92.3352197,34.2685483 92.9524636,34.2685483 C93.4274921,34.2685483 93.9978196,33.8404361 94.9009603,32.6052153 C98.8448703,27.0932712 102.170803,24.1470678 104.641978,22.6743327 C103.976352,24.4322316 101.980938,26.6658921 100.50747,29.9918251 C100.080091,31.0371812 100.080091,32.1778362 100.745718,33.2224592 C101.315312,34.1255999 102.741131,35.0763901 104.261515,35.0763901 C108.17537,35.0763901 113.386755,28.9406045 115.366041,25.8741778 C116.047795,26.643167 116.664306,27.3527775 116.664306,28.1386273 C116.664306,29.6590119 114.336079,31.8926724 109.584328,33.508356 C109.203865,33.6505713 109.109299,33.9357351 109.299164,34.3631142 C109.489029,34.8381427 109.821842,35.3608207 110.34452,35.9318813 C111.057063,36.6920736 111.817255,37.1194527 113.100859,37.1194527 C114.811108,37.1194527 116.711955,36.2639615 117.757311,35.5037692 C119.943322,33.9357351 120.655865,32.4153504 120.655865,30.8949658 C120.655865,27.901113 117.709662,27.1401876 117.709662,25.7151019 C117.709662,24.0525019 121.273842,22.0087062 124.599775,20.9633502 C125.122453,20.7734854 125.217019,20.2031579 124.077097,18.3976095 C123.031741,16.782659 121.938736,16.3068974 120.703515,16.3068974" id="Fill-5" fill="#5A7267"></path>
                <path d="M153.870405,4.00021221 C152.017207,4.00021221 148.691274,4.95026933 146.885726,5.71046164 C142.418404,7.51601002 141.278483,9.55907267 141.278483,11.4122705 C141.278483,12.6482245 141.611296,13.6935805 142.513703,15.0717498 C133.865691,18.1594354 129.446753,21.5806674 129.446753,26.6183159 C129.446753,29.4692204 130.967137,32.0826105 133.675826,33.8405094 C134.625884,34.4584864 136.098619,34.8858655 137.429872,34.8858655 C141.135534,34.8858655 145.555206,32.0349611 148.263162,29.5637862 C149.403817,28.5660797 149.783546,27.8535368 149.73663,27.045695 C149.688981,26.523017 149.594415,25.8104742 149.451466,25.2401467 C151.06715,25.0502818 152.635184,24.8127676 153.68054,24.6221697 C155.058709,24.3370059 155.865818,23.9572763 156.29393,22.9119203 C156.67366,21.9611301 156.768959,20.0133664 156.768959,19.3000904 C156.768959,19.2055246 156.62601,19.1102256 156.436145,19.1578751 C152.920348,20.297797 148.40611,21.3438862 145.364608,21.7236158 C144.319252,21.8665642 143.939522,22.2470269 143.891873,22.674406 C143.844223,23.1494345 143.701275,24.1471411 143.512143,24.7174686 C143.321545,25.2877961 143.606709,25.5729599 144.795013,25.5729599 C145.79272,25.5729599 147.027941,25.4776609 148.216245,25.382362 C145.649772,27.3308588 140.233127,29.5637862 134.103205,30.0864643 C134.055556,29.9442489 134.055556,29.8013005 134.055556,29.6590852 C134.055556,26.2378533 138.759658,21.533751 144.984878,19.348473 C146.173183,18.9203608 146.647478,18.4929817 146.647478,18.0172201 C146.647478,17.7797058 146.505263,17.589841 146.315398,17.3992431 C144.795013,15.8788585 144.177036,15.1186662 144.177036,14.3584739 C144.177036,12.8380893 148.073297,11.1747562 158.384642,9.60672214 C159.144835,9.51215627 159.382349,8.41915074 158.146395,6.66125183 C156.768959,4.71275505 155.486088,4.00021221 153.870405,4.00021221" id="Fill-7" fill="#5A7267"></path>
                <path d="M185.707728,24.5275305 C184.80532,24.2900162 183.997478,24.0525019 183.331852,23.7673382 C184.947536,23.3868755 186.658518,22.816548 187.751524,22.3415194 C189.12896,21.7711919 189.557072,21.2485139 190.602428,20.0602094 C191.125106,19.4422325 191.552485,18.7304227 191.552485,18.445259 C191.552485,18.2546611 191.457186,18.1593621 191.314971,18.1593621 C190.934508,18.1593621 185.517863,19.6804798 179.91062,19.6804798 C178.437885,19.6804798 177.867557,19.3953161 177.487828,19.3953161 C177.155015,19.3953161 177.107365,19.8234282 177.344879,20.7734854 C177.582394,21.8188414 178.010506,23.0071459 178.390235,23.6720393 C178.770698,24.2900162 179.293376,24.4322316 180.576247,24.2900162 C176.01436,29.5637129 171.642337,32.3669679 167.841376,32.0825372 C167.699161,31.6551581 167.651511,31.1324801 167.651511,30.6098021 C167.651511,23.1970107 180.243433,11.4121972 195.069016,5.33065872 C195.638611,5.09241137 195.924507,4.0001389 193.880712,2.33680587 C192.883005,1.48204769 191.980597,0.910987121 190.744643,0.910987121 C187.513276,0.910987121 178.532451,5.80568728 171.880585,11.6504446 C166.653805,16.3068974 162.566946,21.9610568 162.566946,27.5682998 C162.566946,30.3722878 163.659952,32.8427295 165.940529,34.031034 C167.271782,35.2655218 168.886732,36.0264472 170.977444,36.0264472 C176.394822,36.0264472 183.094338,30.5614195 185.565513,26.9510559 C186.373354,25.7627514 186.705435,24.7643117 185.707728,24.5275305" id="Fill-9" fill="#5A7267"></path>
                <path d="M208.469367,15.3090442 C208.469367,14.8340156 208.327151,14.0730902 207.946688,14.0730902 C207.709174,14.0730902 207.281795,14.3113376 206.426304,14.7863661 C203.765264,16.3067507 201.389388,17.7794859 198.775998,20.0131464 C199.298676,17.9217012 198.871297,17.2568079 198.205671,16.8770782 C197.587694,16.5449981 196.495421,16.2591013 195.63993,16.2114518 C195.069603,16.1645354 194.832088,16.2591013 194.689873,16.5449981 C194.071896,17.7325695 192.076483,20.8209882 189.177929,24.7172487 C186.896619,27.758018 185.851263,29.5166499 185.851263,31.1323335 C185.851263,32.1776895 186.326291,32.7956665 187.419297,33.5558588 C188.464653,34.2684017 189.272495,34.6004818 189.985038,34.6004818 C190.74523,34.6004818 191.030394,34.3160511 193.074189,31.5127962 C198.538484,24.0523553 203.100371,19.7279827 207.566959,16.4966156 C208.136553,16.0692365 208.469367,15.7840727 208.469367,15.3090442" id="Fill-11" fill="#5A7267"></path>
                <path d="M216.548151,24.0522087 C214.980117,23.8146944 214.267574,22.9592032 214.172275,21.6763328 C214.980117,21.1536548 215.787959,20.6778932 216.548151,20.2505141 C216.833315,20.6309768 216.97553,21.2005712 216.97553,22.0091461 C216.97553,22.6740394 216.833315,23.3389328 216.548151,24.0522087 M207.520409,31.3697012 C207.186863,28.3758483 209.468173,25.3350791 212.462026,22.9115537 C212.604241,24.4795878 213.459732,25.8101076 215.312197,26.2851362 C213.459732,28.8516099 210.37058,31.0845374 207.520409,31.3697012 M247.957215,17.4472591 C248.100164,16.9722306 248.336945,16.40117 248.336945,16.2589547 C248.336945,16.1167393 248.19473,16.0690899 247.957215,16.2589547 C244.868797,18.5395316 239.451418,23.2436339 235.317644,27.9484692 C235.935621,25.9054066 236.790379,23.9099934 237.550571,22.2943098 C238.120899,21.0583559 238.073249,20.3934625 237.693519,20.2028646 C237.408356,20.0606493 235.602807,19.7285691 234.98483,19.6332702 C234.462152,19.5379713 234.176989,19.5379713 233.797259,20.0129998 C232.37144,21.8185482 230.043214,24.3373725 227.477473,26.6655989 C228.47518,24.0991251 229.187723,22.0091461 229.330671,21.3911691 C229.663484,19.9660834 229.710401,18.68248 229.187723,17.9222877 C228.617395,16.9245811 226.526683,16.7823658 225.624275,16.40117 C224.911732,16.1167393 224.768784,16.7347163 224.673485,17.1620954 C224.384656,18.4383681 223.424336,20.5569368 222.404637,22.7326849 C221.252253,23.3851161 220.051486,23.8594116 218.828728,24.0522087 C218.876377,23.6248296 218.924027,23.1967175 218.924027,22.7693384 C218.924027,21.4388186 218.544297,20.345813 217.92632,19.5379713 C218.401349,19.2528075 218.448998,19.1105922 218.448998,18.9199943 C218.448998,18.6348305 218.116185,18.1121525 216.738016,17.2566613 C215.787959,16.6870668 214.932467,16.5448515 213.839462,16.5448515 C211.036207,16.5448515 206.236806,19.3950228 203.623415,22.8646373 C200.534997,26.9984121 200.867077,30.2297792 203.005438,32.6525715 C204.241392,34.0307408 205.619562,34.7909331 207.662624,34.7909331 C212.366727,34.7909331 216.500501,30.419644 218.163834,26.2851362 C219.208457,26.1040682 220.243551,25.7280039 221.233193,25.2331825 C220.662866,26.4654711 220.151917,27.6149229 219.827167,28.5187967 C218.734162,31.559566 218.924027,32.082244 220.254547,33.4604133 C221.157687,34.4581199 221.727282,34.885499 222.440558,34.885499 C223.390615,34.885499 224.626569,34.2206056 225.766491,32.5580056 C227.382174,30.2297792 228.997858,27.9961187 230.423676,26.0952714 C229.995564,27.9961187 229.615835,29.9922649 229.520536,31.5126496 C229.425237,32.4150572 229.520536,33.1276001 230.043214,33.3651143 C230.518242,33.5557122 232.466739,34.0783902 232.894118,34.0783902 C233.939474,34.0783902 234.890264,33.5557122 236.220051,31.7501638 C240.402209,26.0952714 242.778084,23.3389328 245.723555,20.2981636 C247.576753,18.3973163 247.76735,18.0652361 247.957215,17.4472591" id="Fill-13" fill="#5A7267"></path>
                <path d="M256.368739,13.6932873 C257.081282,13.6932873 257.746909,13.5979883 258.507101,12.7432302 C259.077429,12.1729027 260.454865,10.8900323 261.690819,9.65407838 C262.070548,9.27434876 261.833034,8.98918501 261.358006,8.60872232 C260.835327,8.13369376 259.647756,7.51571679 258.649316,7.23128611 C258.269587,7.13598717 257.841475,7.42115092 257.128932,8.2289927 C256.178875,9.27434876 255.085869,10.7947334 254.372593,12.315118 C254.183462,12.7432302 254.183462,13.0283939 254.372593,13.1706093 C254.705406,13.4081235 255.703846,13.6932873 256.368739,13.6932873" id="Fill-15" fill="#5A7267"></path>
                <path d="M289.109497,25.0021925 C286.543756,27.8054475 283.835067,29.4695136 281.174027,30.134407 C282.267033,26.5225772 287.11335,21.3910958 291.200209,20.5839871 C290.582232,22.0559892 289.869689,23.5294574 289.109497,25.0021925 M274.854241,43.1060588 C272.953394,44.3420127 270.815032,45.3873688 268.914918,45.815481 C269.484513,41.3005104 274.094049,38.7824192 281.221677,36.8346555 C278.845801,39.7332094 276.565224,41.9661369 274.854241,43.1060588 M297.28248,33.0806103 C295.571498,32.8907455 293.576085,32.842363 290.867396,33.1275267 C295.191768,26.9506893 297.567644,22.0090728 297.567644,21.1066651 C297.567644,20.3933892 296.854368,19.7284958 295.476932,19.2058178 C294.668357,18.919921 293.861248,18.7777056 293.290921,18.7300562 C293.147972,18.3972429 293.053407,18.0651628 293.005757,17.8745649 C292.768243,17.0190737 292.008051,16.734643 290.392367,16.734643 C287.11335,16.734643 282.979576,18.2073781 280.034105,20.9629836 C277.004332,23.8512746 275.908394,26.691183 275.90033,28.4974644 C274.077188,30.1952517 272.477632,31.0353485 271.051814,31.3703609 C271.622141,29.1367004 274.615994,25.3826552 275.755916,22.9114804 C276.516108,21.2957969 276.468459,20.4403056 275.376186,19.442599 C274.71056,18.8253551 273.950368,18.4925419 273.142526,18.4925419 C272.09717,18.4925419 270.006458,19.3956826 267.487633,20.7262024 C267.915745,19.6801133 267.535283,18.9683035 266.77509,18.2073781 C265.587519,17.0674562 263.87727,16.2588814 262.87883,16.2588814 C262.593666,16.2588814 262.403801,16.3541803 262.213937,16.6869935 C261.59596,17.779266 259.409949,20.7731188 256.416829,24.7170288 C255.260779,26.2308158 254.30779,27.6573676 253.700809,28.8639988 C251.376248,30.9913644 249.516453,31.6687199 248.005598,31.79774 C248.575925,30.0867575 250.143959,27.5686663 252.75735,23.8615375 C254.420683,21.5340442 255.37074,19.8707112 255.37074,18.919921 C255.37074,17.1143726 252.37762,16.8768583 251.189315,16.8768583 C250.808853,16.8768583 250.618988,16.9721573 250.429123,17.2096715 C249.383767,18.3972429 247.007891,21.6762595 245.012478,24.7170288 C241.448298,30.2297059 241.543597,31.3219784 243.681958,33.2704752 C245.012478,34.3634807 245.677371,34.8385092 247.055541,34.8385092 C248.806842,34.8385092 251.006048,33.4346826 253.044712,31.5866162 C253.206721,32.4919561 253.790243,33.2294233 254.515981,33.7931532 C255.276174,34.4111302 256.131665,34.8854257 256.939507,34.8854257 C257.271587,34.8854257 257.556751,34.6962939 258.127078,34.1252333 C259.267733,32.9853114 260.835767,30.7040014 263.259293,27.0936377 C265.729734,24.9552761 268.343125,22.864564 270.291621,21.5340442 C268.818886,23.7669717 266.44301,25.9529827 265.254706,28.4710739 C264.494514,30.134407 264.969542,31.4641937 266.110197,32.7477971 C267.012605,33.7455037 268.011044,34.3158312 269.150966,34.3158312 C271.474061,34.3158312 274.102846,32.395191 276.263933,30.2062477 C276.679583,31.1328466 277.459568,31.9722104 278.655936,32.5102828 C279.701292,33.2704752 280.841214,33.365041 281.93422,32.9853114 C282.931926,32.6532313 284.262446,31.9399553 285.640615,30.8469498 C284.880423,32.0352543 284.072581,33.1275267 283.264739,34.2205323 C278.702852,35.0291071 274.379213,35.8838653 270.625168,37.5948478 C267.156286,39.1621488 264.875709,41.7762721 264.875709,44.6271765 C264.875709,45.5772336 265.398387,46.9077534 266.301528,47.6202963 C266.966421,48.1429743 268.72432,48.9031666 270.340004,48.9031666 C272.905745,48.9031666 276.897304,47.7632447 281.269326,44.056849 C283.835067,41.871571 286.685971,38.7824192 289.299361,35.2658883 C292.008051,34.8385092 294.526142,34.5533455 296.569204,34.4111302 C297.140265,34.3634807 297.472345,34.2205323 297.66221,33.983018 C297.900457,33.6978542 297.995023,33.5087225 297.995023,33.4134236 C297.995023,33.2228257 297.805158,33.1275267 297.28248,33.0806103" id="Fill-17" fill="#5A7267"></path>
                <path d="M343.897443,4.95019603 C344.372472,4.85489709 344.324823,4.71268175 344.182607,4.52281694 C343.897443,4.14235425 343.374765,3.62040928 342.804438,3.23994659 C341.996596,2.71653549 341.284053,2.24224 339.762936,2.24224 C338.33785,2.24224 335.772109,2.43137174 332.873555,2.66961909 C332.397794,2.2891564 331.923498,1.90942678 331.257872,1.29144981 C330.687544,0.816421251 330.164866,1.1485014 329.404674,2.24224 C329.214809,2.52667068 329.024211,2.76491803 328.834346,3.04934871 C326.031091,3.33451246 323.274753,3.66732568 321.136391,3.90483996 C317.620594,4.33221906 316.622154,4.99711243 315.95726,6.18614997 C315.292367,7.3260719 315.007203,8.27612902 315.007203,8.89410599 C315.007203,9.13162027 315.007203,9.32221815 315.434582,9.27383561 C318.380786,8.98940493 321.802018,8.56202584 325.365465,8.03861474 C319.996469,15.7842193 313.581385,25.0971249 306.881869,35.0763901 C306.644355,35.4561197 306.644355,35.7889329 307.024085,35.7889329 C307.784277,35.7889329 310.397667,35.5037692 312.250865,35.0287406 C313.629034,34.6959274 314.531442,34.3631142 316.432289,31.7973735 C322.134831,24.0994184 329.214809,13.6935072 333.443883,6.80339387 C337.482359,6.1385005 341.188754,5.47287406 343.897443,4.95019603" id="Fill-19" fill="#5A7267"></path>
                <path d="M348.17446,15.3090442 C348.17446,14.8340156 348.032245,14.0730902 347.651782,14.0730902 C347.414268,14.0730902 346.986155,14.3113376 346.131397,14.7863661 C343.470358,16.3067507 341.094482,17.7794859 338.481092,20.0131464 C339.00377,17.9217012 338.576391,17.2568079 337.910764,16.8770782 C337.29352,16.5449981 336.200515,16.2591013 335.345023,16.2114518 C334.774696,16.1645354 334.537182,16.2591013 334.394966,16.5449981 C333.776989,17.7325695 331.780843,20.8209882 328.883022,24.7172487 C326.601712,27.758018 325.556356,29.5166499 325.556356,31.1323335 C325.556356,32.1776895 326.031385,32.7956665 327.12439,33.5558588 C328.169746,34.2684017 328.977588,34.6004818 329.690864,34.6004818 C330.451056,34.6004818 330.735487,34.3160511 332.779283,31.5127962 C338.243577,24.0523553 342.804731,19.7279827 347.272052,16.4966156 C347.841647,16.0692365 348.17446,15.7840727 348.17446,15.3090442" id="Fill-21" fill="#5A7267"></path>
                <path d="M391.987121,25.2877961 C388.946352,29.5637862 386.80799,30.9419555 384.384465,31.2278523 C384.717278,27.8535368 389.658895,22.1040785 393.983267,20.915774 C393.080127,22.5314576 392.4145,24.0041927 391.987121,25.2877961 M356.110736,20.4883949 C356.205302,21.8665642 355.540408,23.1017851 353.449696,24.6221697 C352.309774,25.5245773 350.218329,26.6175829 348.127617,27.4730741 C349.7433,24.1947906 353.164532,21.2009378 356.110736,20.4883949 M413.70355,18.3976828 C412.658194,16.7819992 411.565189,16.3069707 410.329968,16.3069707 C409.522126,16.3069707 408.049391,16.7343498 406.861086,17.4476257 C404.675808,18.6821135 403.20234,20.4883949 403.20234,22.4838081 C403.20234,23.4595226 403.667106,24.262966 404.235234,24.9850387 C401.17174,29.060168 399.263562,30.7154373 397.404499,31.2278523 C396.786522,29.8013005 398.021743,26.9511292 401.30076,21.3438862 C404.626693,15.6413442 408.190873,10.9848914 410.090987,7.46836055 C411.231642,5.37838149 411.421507,3.52518365 410.138637,2.62204293 C409.52066,2.19393077 408.333088,1.5290374 407.145517,1.05327577 C406.717405,0.864144027 406.479891,0.958709898 406.147077,1.5290374 C403.581337,6.47065396 399.589777,11.8396496 395.598951,18.207818 C395.02789,17.1617288 394.600511,16.7819992 393.650454,16.7819992 C390.419087,16.7819992 386.475177,18.3500333 383.434408,21.2009378 C380.345989,24.1471411 379.157685,26.7128818 379.157685,28.5184302 C379.157685,28.6349881 379.167948,28.7434823 379.173079,28.8563749 C377.220917,30.6780508 375.468883,31.6728251 374.310634,31.7021478 C375.831019,28.5184302 378.111595,25.6682588 379.299167,23.1963509 C380.297607,21.0579893 380.107009,19.8235015 379.156952,19.1578751 C378.063946,18.3500333 377.256104,17.9703037 376.685777,17.9703037 C376.163832,17.9703037 375.498205,18.207818 374.500499,18.8257949 C373.407493,19.4906883 371.887109,20.7259092 370.033911,22.4361586 C370.651888,21.1063719 370.983968,20.2024981 370.983968,19.6805531 C370.983968,18.8257949 370.651888,18.5398981 369.369017,17.6367574 C368.560443,17.067163 367.610385,16.6390508 367.087707,16.6390508 C366.136917,16.6390508 365.092294,17.9703037 360.007729,24.7174686 C359.017353,26.0377255 358.260093,27.183512 357.69783,28.1870831 C354.923164,30.5343693 351.858937,31.7974468 349.172973,31.7974468 C348.46043,31.7974468 347.747887,31.7021478 347.17756,31.512283 C347.12991,30.9419555 347.17756,30.3723611 347.272126,29.7543841 C350.456576,28.8035939 353.212182,27.6160225 354.970081,26.523017 C358.011583,24.6221697 359.00929,23.1494345 359.00929,22.0087795 C359.00929,20.915774 358.391313,20.0602828 357.345957,19.1578751 C356.015437,17.1617288 355.01773,16.7343498 353.73486,16.7343498 C350.503493,16.7343498 345.84704,19.5859873 343.186,23.1017851 C341.142938,25.8573906 340.477311,28.7559445 341.190587,30.3723611 C341.90313,32.0349611 343.328949,33.5553457 344.754034,34.2686216 C345.561876,34.6960007 346.511933,34.8858655 347.747887,34.8858655 C350.488098,34.8858655 353.700406,33.473975 356.523453,31.2901632 C356.510258,31.4133187 356.491198,31.5408727 356.491198,31.6552314 C356.491198,32.652938 357.156825,33.3654809 358.106882,33.6029951 C359.247537,33.8874258 360.340542,34.2686216 360.957786,34.2686216 C361.432815,34.2686216 362.003142,33.8405094 362.906283,32.6045555 C366.850193,27.0933445 370.176126,24.1471411 372.647301,22.674406 C371.981674,24.4323049 369.986261,26.6659654 368.513526,29.9918984 C368.085414,31.0372545 368.085414,32.1771764 368.75104,33.2225325 C369.321368,34.1256732 370.746454,35.0764634 372.266838,35.0764634 C374.544483,35.0764634 377.264168,32.9945481 379.530084,30.6494611 C379.837239,31.4529045 380.321065,32.1331923 380.963233,32.748237 C383.149244,34.7912996 384.717278,35.2186787 386.712691,34.0780237 C388.233076,33.270915 389.754194,31.7021478 391.226929,29.7543841 C391.274578,30.7044412 391.559742,31.4646336 391.987121,32.13026 C393.032477,33.6982941 394.030917,34.1733227 395.218488,34.1733227 C398.4176,34.1733227 401.662896,31.3150875 404.996893,25.8793826 C405.67718,26.6461726 406.290759,27.354317 406.290759,28.1387006 C406.290759,29.6590852 403.962532,31.8927457 399.210781,33.5084293 C398.830318,33.6506446 398.735752,33.9358084 398.925617,34.3631875 C399.116215,34.838216 399.448295,35.3608941 399.970973,35.9319546 C400.683516,36.6921469 401.443708,37.119526 402.727312,37.119526 C404.437561,37.119526 406.338408,36.2640348 407.383764,35.5038425 C409.569775,33.9358084 410.282318,32.4154237 410.282318,30.8943061 C410.282318,27.9004532 407.336115,27.1402609 407.336115,25.7151752 C407.336115,24.0518422 410.900295,22.0087795 414.226228,20.9634235 C414.748906,20.7735587 414.844205,20.2024981 413.70355,18.3976828" id="Fill-23" fill="#5A7267"></path>
            </g>
        </g>
    </g>
</svg>