<?xml version="1.0" encoding="UTF-8"?>
<svg width="254px" height="39px" viewBox="0 0 254 39" version="1.1" xmlns="http://www.w3.org/2000/svg" xmlns:xlink="http://www.w3.org/1999/xlink">
    <!-- Generator: Sketch 45.1 (43504) - http://www.bohemiancoding.com/sketch -->
    <title>icon-search</title>
    <desc>Created with Sketch.</desc>
    <defs></defs>
    <g id="Desktop" stroke="none" stroke-width="1" fill="none" fill-rule="evenodd">
        <g id="PIAB_Home_V2" transform="translate(-648.000000, -22.000000)" stroke-width="2">
            <g id="Group-8" transform="translate(112.000000, 0.000000)">
                <g id="icon-search" transform="translate(537.000000, 23.000000)">
                    <rect id="Rectangle-2" stroke="#FFFFFF" fill="#FFFFFF" x="0" y="0" width="252" height="37" rx="18.5"></rect>
                    <path d="M32.25,26.25 L28.5,22.5" id="Shape" stroke="#DE3F3A" stroke-linecap="round" stroke-linejoin="round"></path>
                    <circle id="Oval" stroke="#DE3F3A" stroke-linecap="round" stroke-linejoin="round" cx="23.25" cy="17.25" r="6.75"></circle>
                    <path d="M19.575,16.5 C19.875,15 21,13.875 22.5,13.575" id="Shape" stroke="#DE3F3A" stroke-linecap="round" stroke-linejoin="round"></path>
                </g>
            </g>
        </g>
    </g>
</svg>