<?xml version="1.0" encoding="UTF-8"?>
<svg width="22px" height="24px" viewBox="0 0 22 24" version="1.1" xmlns="http://www.w3.org/2000/svg" xmlns:xlink="http://www.w3.org/1999/xlink">
    <!-- Generator: Sketch 47.1 (45422) - http://www.bohemiancoding.com/sketch -->
    <title>icon-indoor</title>
    <desc>Created with Sketch.</desc>
    <defs></defs>
    <g id="Symbols" stroke="none" stroke-width="1" fill="none" fill-rule="evenodd" stroke-linecap="round" stroke-linejoin="round">
        <g id="Block-/-Navigation-/-Updated" transform="translate(-184.000000, -29.000000)" stroke="#CBCBCB" stroke-width="2">
            <g id="icon-indoor" transform="translate(185.000000, 30.000000)">
                <path d="M10,12 L10,0" id="Shape"></path>
                <path d="M16,1 L15,1 C12.23858,1 10,3.23858 10,6 L10,8 L11,8 C13.76142,8 16,5.76142 16,3 L16,1 Z" id="Shape"></path>
                <polyline id="Shape" points="17 16 17 22 3 22 3 16"></polyline>
                <rect id="Rectangle-path" x="0" y="12" width="20" height="4"></rect>
            </g>
        </g>
    </g>
</svg>