<?xml version="1.0" encoding="UTF-8"?>
<svg width="32px" height="32px" viewBox="0 0 32 32" version="1.1" xmlns="http://www.w3.org/2000/svg" xmlns:xlink="http://www.w3.org/1999/xlink">
    <!-- Generator: Sketch 43.2 (39069) - http://www.bohemiancoding.com/sketch -->
    <title>ui-32px-outline-1_simple-add copy 2</title>
    <desc>Created with Sketch.</desc>
    <defs></defs>
    <g id="Pages" stroke="none" stroke-width="1" fill="none" fill-rule="evenodd" stroke-linecap="square">
        <g id="Buy-Now" transform="translate(-237.000000, -47.000000)" stroke-width="3" stroke="#444444">
            <g id="Group-4">
                <g id="ui-32px-outline-1_simple-add-copy-2" transform="translate(239.000000, 49.000000)">
                    <g id="Group">
                        <path d="M14,0 L14,28" id="Shape"></path>
                        <path d="M28,14 L0,14" id="Shape"></path>
                    </g>
                </g>
            </g>
        </g>
    </g>
</svg>