<?xml version="1.0" encoding="UTF-8"?>
<svg width="24px" height="24px" viewBox="0 0 24 24" version="1.1" xmlns="http://www.w3.org/2000/svg" xmlns:xlink="http://www.w3.org/1999/xlink">
    <!-- Generator: Sketch 43.1 (39012) - http://www.bohemiancoding.com/sketch -->
    <title>envir-24px-outline_water</title>
    <desc>Created with Sketch.</desc>
    <defs></defs>
    <g id="Pages" stroke="none" stroke-width="1" fill="none" fill-rule="evenodd">
        <g id="PIAB_Product_V1" transform="translate(-1217.000000, -953.000000)" stroke-width="2" stroke="#444444">
            <g id="Group-13" transform="translate(815.000000, 945.000000)">
                <g id="Group-9" transform="translate(384.000000, 9.000000)">
                    <g id="envir-24px-outline_water" transform="translate(19.000000, 0.000000)">
                        <g id="Group">
                            <path d="M17,19.375 C17,17.7125 19.5,15 19.5,15 C19.5,15 22,17.7125 22,19.375 C22,21.0375 20.75,22 19.5,22 C18.25,22 17,21.0375 17,19.375 Z" id="Shape" stroke-linecap="square"></path>
                            <polyline id="Shape" points="18.05691 3.32385 11.72412 4.37933 11 1 0 1 0 15 14 15 12.74194 9.12903 18.6443 6.17785"></polyline>
                            <path d="M22,8 C19.79086,8 18,6.20914 18,4 C18,1.79086 19.79086,0 22,0 L22,8 Z" id="Shape" stroke-linecap="square"></path>
                        </g>
                    </g>
                </g>
            </g>
        </g>
    </g>
</svg>